{
   "channel_config":{
      "mask_dir":"/external_data/Data/Cirrus_25_11_21/results",
      "channels_dir":"/external_data/Data/Cirrus_25_11_21/data",
      "channels_suffixes":[
         "_g.rec.fits",
         "_r.rec.fits",
         "_i.rec.fits"
      ]
   },
   "dataset_name":"250x200image448",
   "data_dir":"/external_data/Data/Cirrus/PNGDataset/ForUNetDatasets",
   "generator_dir":"/external_data/Data/Cirrus/UNetSegmentation",
   "n_train_fields":200,
   "n_train":200,
   "n_valid":100,
   "scale": 1,
   "shape":[
      448,
      448
   ],
   "augmentation": true,
   "models_dir":"/external_data/Data/Cirrus/UNetSegmentation",
   "model_type":"resnet50v2_unet_deep_decoder_with_bn_model",
   "mode": "standard",
   "learning_rate": 1.0e-3,
   "target_names": [
      "background",
      "cirrus"
   ],
   "weights": [
      1.0,
      4.0
   ],
   "epochs":25,
   "batch_size":16,
   "buffer_size":10000,
   "GPU":true,
   "test_dir": "/external_data/Data/TestCirrus_23_12_21"
}