{
  "quantile": [
    551,
    947,
    1340
  ],
  "train_config": "/home/dpolyakov/Documents/models/2022_01_10_10_57_model_config.json",
  "model_path": "/home/dpolyakov/Documents/models/2022_01_10_10_57_model",
  "data_dir": "/mnt/data/S82_IAC_full",
  "result_dir": "/mnt/data/neural_cirrus_2022_01_10",
  "GPU": false
}